<?xml version="1.0" encoding="UTF-8" standalone="no"?>
<svg
   viewBox="0 0 256 256"
   version="1.1"
   id="svg2"
   xmlns="http://www.w3.org/2000/svg"
   xmlns:svg="http://www.w3.org/2000/svg">
  <defs
     id="defs2" />
  <rect
     width="256"
     height="256"
     fill="none"
     id="rect1" />
  <g
     id="g1"
     transform="matrix(0.86693548,0,0,0.86693548,17.032259,4)">
    <line
       x1="96"
       y1="8"
       x2="160"
       y2="8"
       fill="none"
       stroke="currentColor"
       stroke-linecap="round"
       stroke-linejoin="round"
       stroke-width="16"
       id="line1"
       style="stroke:#ffffff;stroke-opacity:1" />
    <rect
       x="64"
       y="40"
       width="128"
       height="200"
       rx="16"
       fill="none"
       stroke="currentColor"
       stroke-linecap="round"
       stroke-linejoin="round"
       stroke-width="16"
       id="rect2"
       style="stroke:#ffffff;stroke-opacity:1" />
    <line
       x1="96"
       y1="200"
       x2="160"
       y2="200"
       fill="none"
       stroke="currentColor"
       stroke-linecap="round"
       stroke-linejoin="round"
       stroke-width="16"
       id="line2"
       style="stroke:#ffffff;stroke-opacity:1" />
  </g>
</svg>
