<?xml version="1.0" encoding="UTF-8" standalone="no"?>
<svg
   viewBox="0 0 256 256"
   version="1.1"
   id="svg5"
   xmlns="http://www.w3.org/2000/svg"
   xmlns:svg="http://www.w3.org/2000/svg">
  <defs
     id="defs5" />
  <rect
     width="256"
     height="256"
     fill="none"
     id="rect1" />
  <line
     x1="150.66667"
     y1="75.926941"
     x2="150.66667"
     y2="200"
     fill="none"
     stroke="currentColor"
     stroke-linecap="round"
     stroke-linejoin="round"
     stroke-width="16"
     id="line1"
     style="stroke:#ffffff;stroke-width:18;stroke-dasharray:none;stroke-opacity:1" />
  <line
     x1="204"
     y1="32"
     x2="204"
     y2="200"
     fill="none"
     stroke="currentColor"
     stroke-linecap="round"
     stroke-linejoin="round"
     stroke-width="16"
     id="line2"
     style="stroke:#ffffff;stroke-width:18;stroke-dasharray:none;stroke-opacity:1" />
  <line
     x1="97.333336"
     y1="125.12286"
     x2="97.333336"
     y2="200"
     fill="none"
     stroke="currentColor"
     stroke-linecap="round"
     stroke-linejoin="round"
     stroke-width="16"
     id="line4"
     style="stroke:#ffffff;stroke-width:18;stroke-dasharray:none;stroke-opacity:1" />
  <line
     x1="44"
     y1="171.7811"
     x2="44"
     y2="200"
     fill="none"
     stroke="currentColor"
     stroke-linecap="round"
     stroke-linejoin="round"
     stroke-width="17.3576"
     id="line5"
     style="stroke:#ffffff;stroke-width:18;stroke-dasharray:none;stroke-opacity:1" />
</svg>
